Modeling Practice
…
Simplify column names.

names(seoul_bike_data) <- str_remove(names(seoul_bike_data), "\\s*\\([^\\)]+\\)")

Convert the Date column into an actual date. Turn the character variables (Seasons, Holiday, and Functioning Day) into factors. Rename the all variables to have easy to use names in snake case.

seoul_bike_data <-
  seoul_bike_data |>
  mutate(Date = dmy(Date)) |>
  mutate(across(where(is.character), as.factor)) |>
  clean_names()

seoul_bike_data

# A tibble: 8,760 × 14
   date       rented_bike_count  hour temperature humidity wind_speed visibility
   <date>                 <dbl> <dbl>       <dbl>    <dbl>      <dbl>      <dbl>
 1 2017-12-01               254     0        -5.2       37        2.2       2000
 2 2017-12-01               204     1        -5.5       38        0.8       2000
 3 2017-12-01               173     2        -6         39        1         2000
 4 2017-12-01               107     3        -6.2       40        0.9       2000
 5 2017-12-01                78     4        -6         36        2.3       2000
 6 2017-12-01               100     5        -6.4       37        1.5       2000
 7 2017-12-01               181     6        -6.6       35        1.3       2000
 8 2017-12-01               460     7        -7.4       38        0.9       2000
 9 2017-12-01               930     8        -7.6       37        1.1       2000
10 2017-12-01               490     9        -6.5       27        0.5       1928
# ℹ 8,750 more rows
# ℹ 7 more variables: dew_point_temperature <dbl>, solar_radiation <dbl>,
#   rainfall <dbl>, snowfall <dbl>, seasons <fct>, holiday <fct>,
#   functioning_day <fct>
…
find the sum of the rented_bike_count, rainfall, and snowfall variables

find the mean of all the weather related variables

new_seoul_bike_data <-
  seoul_bike_data |>
  filter(functioning_day == "Yes") |>
  group_by(date, seasons, holiday) |>
  summarise(across(c(rented_bike_count, rainfall, snowfall), sum),
            across(all_of(weather_vars), mean))

new_seoul_bike_data

# A tibble: 353 × 12
# Groups:   date, seasons [353]
   date       seasons holiday    rented_bike_count rainfall snowfall temperature
   <date>     <fct>   <fct>                  <dbl>    <dbl>    <dbl>       <dbl>
 1 2017-12-01 Winter  No Holiday              9539      0        0       -2.45  
 2 2017-12-02 Winter  No Holiday              8523      0        0        1.33  
 3 2017-12-03 Winter  No Holiday              7222      4        0        4.88  
 4 2017-12-04 Winter  No Holiday              8729      0.1      0       -0.304 
 5 2017-12-05 Winter  No Holiday              8307      0        0       -4.46  
 6 2017-12-06 Winter  No Holiday              6669      1.3      8.6      0.0458
 7 2017-12-07 Winter  No Holiday              8549      0       10.4      1.09  
 8 2017-12-08 Winter  No Holiday              8032      0        0       -3.82  
 9 2017-12-09 Winter  No Holiday              7233      0        0       -0.846 
10 2017-12-10 Winter  No Holiday              3453      4.1     32.5      1.19  
# ℹ 343 more rows
# ℹ 5 more variables: humidity <dbl>, wind_speed <dbl>, visibility <dbl>,
#   dew_point_temperature <dbl>, solar_radiation <dbl>
…
create dummy variables for the seasons, holiday, and new weekpart variable

bike_rec_1 <-
  recipe(rented_bike_count ~ ., data = bike_train) |>
  step_date(date, features = "dow") |>
  step_mutate(weekpart = factor(if_else(date_dow %in% c("Sun", "Sat"), "Weekend", "Weekday"))) |>
  step_rm(date, date_dow) |>
  step_normalize(all_numeric(), -all_outcomes()) |>
  step_dummy(seasons, holiday, weekpart)

bike_rec_1 |>
  prep(training = bike_train) |>
  bake(bike_train)

# A tibble: 263 × 14
   rainfall snowfall temperature humidity wind_speed visibility
      <dbl>    <dbl>       <dbl>    <dbl>      <dbl>      <dbl>
 1   -0.312   -0.196       1.08    0.204      -0.903      0.835
 2   -0.312   -0.196       1.04   -0.239      -0.401      1.15 
 3    2.39    -0.196       0.925   1.60       -1.15       0.154
 4   -0.312   -0.196       0.945   0.243       1.30       1.07 
 5   -0.312   -0.196       0.980   0.841       0.264      0.420
 6   -0.195   -0.196       0.802  -0.0842      1.25       0.855
 7   -0.312   -0.196       0.762  -0.630      -0.125      1.13 
 8   -0.312   -0.196       0.785  -0.577      -0.860      1.16 
 9   -0.312   -0.196       0.751  -0.677      -0.450      1.16 
10   -0.312   -0.196       0.911   0.276      -0.874      1.13 
# ℹ 253 more rows
# ℹ 8 more variables: dew_point_temperature <dbl>, solar_radiation <dbl>,
#   rented_bike_count <dbl>, seasons_Spring <dbl>, seasons_Summer <dbl>,
#   seasons_Winter <dbl>, holiday_No.Holiday <dbl>, weekpart_Weekend <dbl>
…
do the same steps as above

add in interactions between seasons and holiday, seasons and temperature, and temperature and rainfall

bike_rec_2 <-
  bike_rec_1 |>
  step_interact(~ starts_with("holiday"):starts_with("seasons") +
                  temperature:starts_with("seasons") +
                  temperature:rainfall)

bike_rec_2 |>
  prep(training = bike_train) |>
  bake(bike_train)

# A tibble: 263 × 21
   rainfall snowfall temperature humidity wind_speed visibility
      <dbl>    <dbl>       <dbl>    <dbl>      <dbl>      <dbl>
 1   -0.312   -0.196       1.08    0.204      -0.903      0.835
 2   -0.312   -0.196       1.04   -0.239      -0.401      1.15 
 3    2.39    -0.196       0.925   1.60       -1.15       0.154
 4   -0.312   -0.196       0.945   0.243       1.30       1.07 
 5   -0.312   -0.196       0.980   0.841       0.264      0.420
 6   -0.195   -0.196       0.802  -0.0842      1.25       0.855
 7   -0.312   -0.196       0.762  -0.630      -0.125      1.13 
 8   -0.312   -0.196       0.785  -0.577      -0.860      1.16 
 9   -0.312   -0.196       0.751  -0.677      -0.450      1.16 
10   -0.312   -0.196       0.911   0.276      -0.874      1.13 
# ℹ 253 more rows
# ℹ 15 more variables: dew_point_temperature <dbl>, solar_radiation <dbl>,
#   rented_bike_count <dbl>, seasons_Spring <dbl>, seasons_Summer <dbl>,
#   seasons_Winter <dbl>, holiday_No.Holiday <dbl>, weekpart_Weekend <dbl>,
#   holiday_No.Holiday_x_seasons_Spring <dbl>,
#   holiday_No.Holiday_x_seasons_Summer <dbl>,
#   holiday_No.Holiday_x_seasons_Winter <dbl>, …
…
bike_rec_3 |>
  prep(training = bike_train) |>
  bake(bike_train)

# A tibble: 263 × 29
   rainfall snowfall temperature humidity wind_speed visibility
      <dbl>    <dbl>       <dbl>    <dbl>      <dbl>      <dbl>
 1   -0.312   -0.196       1.08    0.204      -0.903      0.835
 2   -0.312   -0.196       1.04   -0.239      -0.401      1.15 
 3    2.39    -0.196       0.925   1.60       -1.15       0.154
 4   -0.312   -0.196       0.945   0.243       1.30       1.07 
 5   -0.312   -0.196       0.980   0.841       0.264      0.420
 6   -0.195   -0.196       0.802  -0.0842      1.25       0.855
 7   -0.312   -0.196       0.762  -0.630      -0.125      1.13 
 8   -0.312   -0.196       0.785  -0.577      -0.860      1.16 
 9   -0.312   -0.196       0.751  -0.677      -0.450      1.16 
10   -0.312   -0.196       0.911   0.276      -0.874      1.13 
# ℹ 253 more rows
# ℹ 23 more variables: dew_point_temperature <dbl>, solar_radiation <dbl>,
#   rented_bike_count <dbl>, rainfall_poly_2 <dbl>, snowfall_poly_2 <dbl>,
#   temperature_poly_2 <dbl>, humidity_poly_2 <dbl>, wind_speed_poly_2 <dbl>,
#   visibility_poly_2 <dbl>, dew_point_temperature_poly_2 <dbl>,
#   solar_radiation_poly_2 <dbl>, seasons_Spring <dbl>, seasons_Summer <dbl>,
#   seasons_Winter <dbl>, holiday_No.Holiday <dbl>, weekpart_Weekend <dbl>, …
…
# A tibble: 3 × 4
  model    `mean rmse`     n std_err
  <chr>          <dbl> <int>   <dbl>
1 Recipe 1       3987.    10    171.
2 Recipe 2       2980.    10    276.
3 Recipe 3       2898.    10    250.

bike_best_fit <-
  bike_wfl_3 |>
  fit(bike_train)

bike_best_fit |>
  tidy()

# A tibble: 29 × 5
   term                  estimate std.error statistic  p.value
   <chr>                    <dbl>     <dbl>     <dbl>    <dbl>
 1 (Intercept)             16061.     1620.     9.92  1.41e-19
 2 rainfall                -1538.      429.    -3.59  4.05e- 4
 3 snowfall                 -238.      194.    -1.23  2.22e- 1
 4 temperature             -1177.     4252.    -0.277 7.82e- 1
 5 humidity                -2556.     1476.    -1.73  8.48e- 2
 6 wind_speed               -476.      209.    -2.28  2.37e- 2
 7 visibility               -118.      274.    -0.432 6.66e- 1
 8 dew_point_temperature    8358.     4922.     1.70  9.08e- 2
 9 solar_radiation          3473.      378.     9.19  2.25e-17
10 rainfall_poly_2         10396.     3505.     2.97  3.33e- 3
# ℹ 19 more rows
…
bike_lasso_grid <-
  bike_lasso_wfl |>
  tune_grid(resamples = bike_10_fold,
            grid = grid_regular(penalty(range = c(-4, 2)), levels = 500)) 

bike_lasso_grid |>
  collect_metrics() |>
  filter(.metric == "rmse") |>
  arrange(mean)

# A tibble: 500 × 7
   penalty .metric .estimator  mean     n std_err .config               
     <dbl> <chr>   <chr>      <dbl> <int>   <dbl> <chr>                 
 1    18.0 rmse    standard   2820.    10    243. Preprocessor1_Model438
 2    18.5 rmse    standard   2820.    10    242. Preprocessor1_Model439
 3    19.0 rmse    standard   2820.    10    242. Preprocessor1_Model440
 4    17.5 rmse    standard   2821.    10    243. Preprocessor1_Model437
 5    19.5 rmse    standard   2821.    10    242. Preprocessor1_Model441
 6    20.1 rmse    standard   2821.    10    242. Preprocessor1_Model442
 7    17.0 rmse    standard   2821.    10    243. Preprocessor1_Model436
 8    20.6 rmse    standard   2821.    10    241. Preprocessor1_Model443
 9    16.5 rmse    standard   2821.    10    243. Preprocessor1_Model435
10    16.1 rmse    standard   2821.    10    243. Preprocessor1_Model434
# ℹ 490 more rows
…
# A tibble: 1 × 2
  penalty .config               
    <dbl> <chr>                 
1    18.0 Preprocessor1_Model438

bike_lasso_final <- 
  bike_lasso_wfl |>
  finalize_workflow(lowest_rmse) |>
  fit(bike_train)

tidy(bike_lasso_final)

# A tibble: 29 × 3
   term                  estimate penalty
   <chr>                    <dbl>   <dbl>
 1 (Intercept)            17470.     18.0
 2 rainfall               -1554.     18.0
 3 snowfall                -296.     18.0
 4 temperature             4432.     18.0
 5 humidity                 -26.6    18.0
 6 wind_speed              -504.     18.0
 7 visibility                79.7    18.0
 8 dew_point_temperature    150.     18.0
 9 solar_radiation         3526.     18.0
10 rainfall_poly_2         9884.     18.0
# ℹ 19 more rows
…
